Regresión con datos de NFL_attendance
…
Unión de los datasets

Ya leímos el dataset attendance y standings:

attendance: datos de la asistencia/marca los equipos.

standings: datos de la clasificación de los equipos con sus respectivas marcas.

A continuación vamos a unir ambos usando la sentencia left_join y mediante los siguientes campos: c(“year”, “team_name”, “team”))

## # A tibble: 10,846 x 20
##    team  team_name  year  total   home   away  week weekly_attendan~  wins  loss
##    <chr> <chr>     <dbl>  <dbl>  <dbl>  <dbl> <dbl>            <dbl> <dbl> <dbl>
##  1 Ariz~ Cardinals  2000 893926 387475 506451     1            77434     3    13
##  2 Ariz~ Cardinals  2000 893926 387475 506451     2            66009     3    13
##  3 Ariz~ Cardinals  2000 893926 387475 506451     3               NA     3    13
##  4 Ariz~ Cardinals  2000 893926 387475 506451     4            71801     3    13
##  5 Ariz~ Cardinals  2000 893926 387475 506451     5            66985     3    13
##  6 Ariz~ Cardinals  2000 893926 387475 506451     6            44296     3    13
##  7 Ariz~ Cardinals  2000 893926 387475 506451     7            38293     3    13
##  8 Ariz~ Cardinals  2000 893926 387475 506451     8            62981     3    13
##  9 Ariz~ Cardinals  2000 893926 387475 506451     9            35286     3    13
## 10 Ariz~ Cardinals  2000 893926 387475 506451    10            52244     3    13
## # ... with 10,836 more rows, and 10 more variables: points_for <dbl>,
## #   points_against <dbl>, points_differential <dbl>, margin_of_victory <dbl>,
## #   strength_of_schedule <dbl>, simple_rating <dbl>, offensive_ranking <dbl>,
## #   defensive_ranking <dbl>, playoffs <chr>, sb_winner <chr>
…
Eliminemos las semanas que cada equipo no jugó (es decir, donde la asistencia semanal es NA). Conservemos únicamente las columnas que queremos usar para el modelado. Por ejemplo, mantendremos margin_of_victory y Strength_of_schedule, pero no simple_rating, que es la suma de esas dos primeras cantidades.

attendance_df <- attendance_joined %>%
  filter(!is.na(weekly_attendance)) %>%
  select(
    weekly_attendance, team_name, year, week,
    margin_of_victory, strength_of_schedule, playoffs
  )

attendance_df

## # A tibble: 10,208 x 7
##    weekly_attendan~ team_name  year  week margin_of_victo~ strength_of_sch~
##               <dbl> <chr>     <dbl> <dbl>            <dbl>            <dbl>
##  1            77434 Cardinals  2000     1            -14.6             -0.7
##  2            66009 Cardinals  2000     2            -14.6             -0.7
##  3            71801 Cardinals  2000     4            -14.6             -0.7
##  4            66985 Cardinals  2000     5            -14.6             -0.7
##  5            44296 Cardinals  2000     6            -14.6             -0.7
##  6            38293 Cardinals  2000     7            -14.6             -0.7
##  7            62981 Cardinals  2000     8            -14.6             -0.7
##  8            35286 Cardinals  2000     9            -14.6             -0.7
##  9            52244 Cardinals  2000    10            -14.6             -0.7
## 10            64223 Cardinals  2000    11            -14.6             -0.7
## # ... with 10,198 more rows, and 1 more variable: playoffs <chr>
…
